{
    "name": "Visitor",
    "shortname": "visitor",
    "version": "4.0.8",
    "foundation_version": "4.4.3",
    "description": "",
    "license": "EEHarbor",
    "namespace": "EEHarbor\\Visitor",
    "require": {
        "php": ">=5.3.*",
        "expressionengine/core": ">=2.11"
    },
    "resources": {
        "themes": true
    }
}